﻿object={
	name="hadrians wall 01"
	clamp_to_water_level=no
	render_under_water=yes
	generated_content=no
	layer="temp_layer"
	pdxmesh="hadrians_wall_01_a_mesh"
	count=6
	transform="1193.098511 0.000000 2447.621826 0.000000 0.994611 0.000000 0.103675 1.000000 1.000000 1.000000
1207.549316 0.000000 2459.598877 0.000000 0.860425 0.000000 0.509578 1.000000 1.000000 1.000000
1187.984009 0.000000 2469.431885 0.000000 0.043291 0.000000 0.999063 1.000000 1.000000 1.000000
2488.319092 0.000000 2857.333740 0.000000 0.614252 0.000000 0.789110 1.000000 1.000000 1.000000
2485.682861 0.000000 2897.912109 0.000000 0.562606 0.000000 0.826725 1.000000 1.000000 1.000000
2062.024658 0.000000 2963.947754 0.000000 -0.741455 0.000000 0.671003 1.000000 1.000000 1.000000
"}
object={
	name="hadrians wall 02"
	clamp_to_water_level=no
	render_under_water=yes
	generated_content=no
	layer="temp_layer"
	pdxmesh="hadrians_wall_01_b_mesh"
	count=150
	transform="1184.474731 0.000000 2449.115479 0.000000 0.000000 0.000000 1.000000 1.000000 1.000000 1.000000
1199.657715 0.000000 2452.371094 0.000000 -0.208422 0.000000 0.978039 1.000000 1.000000 1.000000
1204.750732 0.000000 2468.642578 0.000000 0.000000 0.000000 1.000000 1.000000 1.000000 1.000000
1178.706787 0.000000 2451.784912 0.000000 0.326007 0.000000 0.945367 1.000000 1.000000 1.000000
1204.514648 0.000000 2461.477051 0.000000 0.266368 0.000000 0.963871 1.000000 1.000000 1.000000
1198.554443 0.000000 2466.245605 0.000000 0.476732 0.000000 0.879049 1.000000 1.000000 1.000000
2174.020020 0.000000 2822.221924 0.000000 -0.181664 0.000000 0.983361 1.000000 1.000000 1.000000
2180.826904 0.000000 2824.844727 0.000000 -0.175448 0.000000 0.984489 1.000000 1.000000 1.000000
2188.073730 0.000000 2825.837158 0.000000 0.000000 0.000000 1.000000 1.000000 1.000000 1.000000
2195.176758 0.000000 2825.511719 0.000000 0.000000 0.000000 1.000000 1.000000 1.000000 1.000000
2202.846680 0.000000 2825.429688 0.000000 0.000000 0.000000 1.000000 1.000000 1.000000 1.000000
2210.036865 0.000000 2826.063232 0.000000 -0.087200 0.000000 0.996191 1.000000 1.000000 1.000000
2217.076660 0.000000 2829.254639 0.000000 0.949685 0.000000 0.313207 1.000000 1.000000 1.000000
2223.013184 0.000000 2830.978760 0.000000 -0.078471 0.000000 0.996916 1.000000 1.000000 1.000000
2230.905273 0.000000 2831.666992 0.000000 0.000000 0.000000 1.000000 1.000000 1.000000 1.000000
2238.223389 0.000000 2830.862305 0.000000 0.101965 0.000000 0.994788 1.000000 1.000000 1.000000
2245.110840 0.000000 2828.038574 0.000000 0.306771 0.000000 0.951784 1.000000 1.000000 1.000000
2251.848145 0.000000 2823.892578 0.000000 0.235707 0.000000 0.971824 1.000000 1.000000 1.000000
2258.868408 0.000000 2821.387695 0.000000 0.092185 0.000000 0.995742 1.000000 1.000000 1.000000
2267.223145 0.000000 2820.622314 0.000000 0.000000 0.000000 1.000000 1.000000 1.000000 1.000000
2274.974854 0.000000 2820.692383 0.000000 0.000000 0.000000 1.000000 1.000000 1.000000 1.000000
2280.723389 0.000000 2817.741943 0.000000 0.403002 0.000000 0.915199 1.000000 1.000000 1.000000
2287.452393 0.000000 2813.981934 0.000000 0.098078 0.000000 0.995179 1.000000 1.000000 1.000000
2295.045898 0.000000 2814.060303 0.000000 -0.095770 0.000000 0.995404 1.000000 1.000000 1.000000
2301.606445 0.000000 2813.232910 0.000000 0.256795 0.000000 0.966466 1.000000 1.000000 1.000000
2305.660156 0.000000 2807.500732 0.000000 0.625293 0.000000 0.780390 1.000000 1.000000 1.000000
2308.994141 0.000000 2801.457275 0.000000 -0.897422 0.000000 0.441172 1.000000 1.000000 1.000000
2314.267578 0.000000 2795.350098 0.000000 -0.912524 0.000000 0.409022 1.000000 1.000000 1.000000
2319.971924 0.000000 2790.554199 0.000000 0.185024 0.000000 0.982734 1.000000 1.000000 1.000000
2327.007568 0.000000 2789.089600 0.000000 0.000000 0.000000 1.000000 1.000000 1.000000 1.000000
2334.533691 0.000000 2789.101807 0.000000 0.000000 0.000000 1.000000 1.000000 1.000000 1.000000
2342.352051 0.000000 2789.099854 0.000000 0.000000 0.000000 1.000000 1.000000 1.000000 1.000000
2349.864746 0.000000 2789.114502 0.000000 0.000000 0.000000 1.000000 1.000000 1.000000 1.000000
2356.830811 0.000000 2787.454590 0.000000 0.262954 0.000000 0.964808 1.000000 1.000000 1.000000
2363.709229 0.000000 2785.032227 0.000000 0.071137 0.000000 0.997467 1.000000 1.000000 1.000000
2371.183350 0.000000 2783.182129 0.000000 0.159713 0.000000 0.987163 1.000000 1.000000 1.000000
2377.482422 0.000000 2780.075928 0.000000 0.307439 0.000000 0.951568 1.000000 1.000000 1.000000
2381.979980 0.000000 2774.999023 0.000000 -0.842935 0.000000 0.538015 1.000000 1.000000 1.000000
2386.442871 0.000000 2768.395020 0.000000 0.343162 0.000000 0.939276 1.000000 1.000000 1.000000
2392.886475 0.000000 2762.592529 0.000000 -0.887836 0.000000 0.460160 1.000000 1.000000 1.000000
2397.016846 0.000000 2756.741943 0.000000 -0.882799 0.000000 0.469751 1.000000 1.000000 1.000000
2402.293457 0.000000 2751.213379 0.000000 -0.953557 0.000000 0.301213 1.000000 1.000000 1.000000
2409.122314 0.000000 2747.414307 0.000000 -0.981646 0.000000 0.190715 1.000000 1.000000 1.000000
2416.161133 0.000000 2744.722412 0.000000 0.132483 0.000000 0.991185 1.000000 1.000000 1.000000
2423.638916 0.000000 2743.192627 0.000000 0.026944 0.000000 0.999637 1.000000 1.000000 1.000000
2431.338379 0.000000 2743.080078 0.000000 0.000000 0.000000 1.000000 1.000000 1.000000 1.000000
2438.647705 0.000000 2742.830078 0.000000 0.013610 0.000000 0.999907 1.000000 1.000000 1.000000
2446.014648 0.000000 2742.354492 0.000000 0.995187 0.000000 -0.097991 1.000000 1.000000 1.000000
2453.563965 0.000000 2741.000977 0.000000 0.000000 0.000000 1.000000 1.000000 1.000000 1.000000
2460.941162 0.000000 2741.777832 0.000000 -0.127642 0.000000 0.991820 1.000000 1.000000 1.000000
2468.280762 0.000000 2742.716553 0.000000 0.000000 0.000000 1.000000 1.000000 1.000000 1.000000
2476.282715 0.000000 2742.546143 0.000000 0.000000 0.000000 1.000000 1.000000 1.000000 1.000000
2483.652344 0.000000 2741.407715 0.000000 0.171451 0.000000 0.985193 1.000000 1.000000 1.000000
2490.900146 0.000000 2739.116943 0.000000 0.093582 0.000000 0.995612 1.000000 1.000000 1.000000
2497.835693 0.000000 2738.378418 0.000000 0.000000 0.000000 1.000000 1.000000 1.000000 1.000000
2504.878906 0.000000 2740.174072 0.000000 -0.246606 0.000000 0.969116 1.000000 1.000000 1.000000
2511.656006 0.000000 2742.497559 0.000000 -0.074272 0.000000 0.997238 1.000000 1.000000 1.000000
2519.182617 0.000000 2743.051758 0.000000 0.000000 0.000000 1.000000 1.000000 1.000000 1.000000
2525.429199 0.000000 2749.656738 0.000000 0.675947 0.000000 0.736951 1.000000 1.000000 1.000000
2524.861572 0.000000 2756.742188 0.000000 -0.771170 0.000000 0.636630 1.000000 1.000000 1.000000
2524.090088 0.000000 2764.681885 0.000000 0.772140 0.000000 0.635452 1.000000 1.000000 1.000000
2524.781494 0.000000 2772.429443 0.000000 0.700997 0.000000 0.713164 1.000000 1.000000 1.000000
2523.348145 0.000000 2779.745117 0.000000 0.562505 0.000000 0.826794 1.000000 1.000000 1.000000
2519.738770 0.000000 2785.900391 0.000000 0.422709 0.000000 0.906266 1.000000 1.000000 1.000000
2516.676758 0.000000 2788.551025 0.000000 0.388541 0.000000 0.921431 1.000000 1.000000 1.000000
2511.672363 0.000000 2794.534668 0.000000 0.462276 0.000000 0.886736 1.000000 1.000000 1.000000
2509.347900 0.000000 2801.164307 0.000000 0.775074 0.000000 -0.631871 1.000000 1.000000 1.000000
2509.983398 0.000000 2808.022949 0.000000 -0.578769 0.000000 0.815492 1.000000 1.000000 1.000000
2510.072754 0.000000 2815.390137 0.000000 0.632269 0.000000 0.774749 1.000000 1.000000 1.000000
2509.381592 0.000000 2823.028320 0.000000 0.729629 0.000000 0.683843 1.000000 1.000000 1.000000
2509.990479 0.000000 2830.649170 0.000000 0.731754 0.000000 0.681569 1.000000 1.000000 1.000000
2509.055176 0.000000 2838.115723 0.000000 0.589075 0.000000 0.808079 1.000000 1.000000 1.000000
2506.931396 0.000000 2845.233398 0.000000 0.586705 0.000000 0.809801 1.000000 1.000000 1.000000
2503.974365 0.000000 2851.959717 0.000000 0.526963 0.000000 0.849888 1.000000 1.000000 1.000000
2499.258057 0.000000 2855.845215 0.000000 0.112069 0.000000 0.993701 1.000000 1.000000 1.000000
2483.999512 0.000000 2870.701660 0.000000 0.606129 0.000000 0.795367 1.000000 1.000000 1.000000
2483.332520 0.000000 2878.030029 0.000000 0.740512 0.000000 0.672043 1.000000 1.000000 1.000000
2482.949707 0.000000 2885.560791 0.000000 0.615576 0.000000 0.788078 1.000000 1.000000 1.000000
2484.093506 0.000000 2892.422363 0.000000 0.900881 0.000000 0.434065 1.000000 1.000000 1.000000
2487.381836 0.000000 2903.695801 0.000000 0.921611 0.000000 0.388115 1.000000 1.000000 1.000000
2491.067871 0.000000 2910.778076 0.000000 0.792493 0.000000 0.609881 1.000000 1.000000 1.000000
2492.457520 0.000000 2918.576904 0.000000 0.756577 0.000000 0.653904 1.000000 1.000000 1.000000
2496.062256 0.000000 2924.536377 0.000000 0.955197 0.000000 0.295971 1.000000 1.000000 1.000000
2502.132568 0.000000 2928.088379 0.000000 -0.339949 0.000000 0.940444 1.000000 1.000000 1.000000
2509.046875 0.000000 2930.861328 0.000000 -0.100872 0.000000 0.994899 1.000000 1.000000 1.000000
2515.563232 0.000000 2934.484863 0.000000 -0.411670 0.000000 0.911333 1.000000 1.000000 1.000000
2521.257324 0.000000 2938.697998 0.000000 -0.219809 0.000000 0.975543 1.000000 1.000000 1.000000
2527.410156 0.000000 2942.726074 0.000000 -0.352289 0.000000 0.935891 1.000000 1.000000 1.000000
2531.550781 0.000000 2945.992432 0.000000 -0.312458 0.000000 0.949932 1.000000 1.000000 1.000000
2538.136963 0.000000 2949.238281 0.000000 -0.173525 0.000000 0.984829 1.000000 1.000000 1.000000
2544.878174 0.000000 2951.975342 0.000000 -0.211077 0.000000 0.977469 1.000000 1.000000 1.000000
2551.377930 0.000000 2955.537354 0.000000 -0.269778 0.000000 0.962922 1.000000 1.000000 1.000000
2558.250488 0.000000 2958.036377 0.000000 -0.107306 0.000000 0.994226 1.000000 1.000000 1.000000
2565.901367 0.000000 2959.362793 0.000000 -0.083642 0.000000 0.996496 1.000000 1.000000 1.000000
2573.387451 0.000000 2961.634033 0.000000 -0.205794 0.000000 0.978595 1.000000 1.000000 1.000000
2580.639648 0.000000 2963.034912 0.000000 0.006042 0.000000 0.999982 1.000000 1.000000 1.000000
2588.341064 0.000000 2963.040039 0.000000 0.000000 0.000000 1.000000 1.000000 1.000000 1.000000
2595.962158 0.000000 2963.733398 0.000000 -0.105638 0.000000 0.994405 1.000000 1.000000 1.000000
2603.292969 0.000000 2965.062500 0.000000 -0.098139 0.000000 0.995173 1.000000 1.000000 1.000000
2608.890869 0.000000 2968.617432 0.000000 -0.463304 0.000000 0.886199 1.000000 1.000000 1.000000
2614.042480 0.000000 2974.689453 0.000000 -0.375823 0.000000 0.926691 1.000000 1.000000 1.000000
2063.974854 0.000000 2839.146484 0.000000 0.736169 0.000000 0.676798 1.000000 1.000000 1.000000
2063.321045 0.000000 2846.881104 0.000000 0.661059 0.000000 0.750334 1.000000 1.000000 1.000000
2061.326416 0.000000 2853.742188 0.000000 -0.888733 0.000000 0.458425 1.000000 1.000000 1.000000
2059.325195 0.000000 2860.252930 0.000000 0.772218 0.000000 0.635358 1.000000 1.000000 1.000000
2059.208496 0.000000 2867.574951 0.000000 0.591710 0.000000 0.806151 1.000000 1.000000 1.000000
2055.789551 0.000000 2873.274414 0.000000 0.401326 0.000000 0.915935 1.000000 1.000000 1.000000
2051.189209 0.000000 2879.090088 0.000000 0.480577 0.000000 0.876953 1.000000 1.000000 1.000000
2049.942627 0.000000 2889.661621 0.000000 0.810841 0.000000 0.585267 1.000000 1.000000 1.000000
2051.953369 0.000000 2896.881104 0.000000 -0.691137 0.000000 0.722723 1.000000 1.000000 1.000000
2052.871826 0.000000 2904.474609 0.000000 -0.633663 0.000000 0.773609 1.000000 1.000000 1.000000
2054.443604 0.000000 2912.112061 0.000000 0.820916 0.000000 0.571049 1.000000 1.000000 1.000000
2058.664551 0.000000 2918.491699 0.000000 -0.414949 0.000000 0.909845 1.000000 1.000000 1.000000
2063.858643 0.000000 2923.795898 0.000000 -0.376417 0.000000 0.926451 1.000000 1.000000 1.000000
2068.546631 0.000000 2929.924072 0.000000 -0.520985 0.000000 0.853566 1.000000 1.000000 1.000000
2069.625977 0.000000 2936.885010 0.000000 0.677070 0.000000 0.735918 1.000000 1.000000 1.000000
2068.916504 0.000000 2944.745605 0.000000 -0.784384 0.000000 0.620275 1.000000 1.000000 1.000000
2065.968750 0.000000 2951.672852 0.000000 0.541307 0.000000 0.840825 1.000000 1.000000 1.000000
2063.160156 0.000000 2958.807861 0.000000 0.582198 0.000000 0.813047 1.000000 1.000000 1.000000
2063.810791 0.000000 2970.286621 0.000000 -0.511550 0.000000 0.859254 1.000000 1.000000 1.000000
2067.161621 0.000000 2976.929443 0.000000 -0.544715 0.000000 0.838621 1.000000 1.000000 1.000000
2070.919922 0.000000 2982.477539 0.000000 -0.413310 0.000000 0.910590 1.000000 1.000000 1.000000
2074.971924 0.000000 2988.182129 0.000000 -0.498935 0.000000 0.866639 1.000000 1.000000 1.000000
2078.697510 0.000000 2995.398926 0.000000 -0.507821 0.000000 0.861462 1.000000 1.000000 1.000000
2084.323242 0.000000 2999.686768 0.000000 -0.192726 0.000000 0.981253 1.000000 1.000000 1.000000
2090.982422 0.000000 3000.622070 0.000000 -0.005066 0.000000 0.999987 1.000000 1.000000 1.000000
2098.692139 0.000000 3000.453857 0.000000 0.000000 0.000000 1.000000 1.000000 1.000000 1.000000
2105.965576 0.000000 3001.995117 0.000000 -0.211912 0.000000 0.977289 1.000000 1.000000 1.000000
2112.439697 0.000000 3005.927979 0.000000 0.959688 0.000000 0.281069 1.000000 1.000000 1.000000
2118.694336 0.000000 3011.048096 0.000000 -0.445635 0.000000 0.895215 1.000000 1.000000 1.000000
2124.355713 0.000000 3015.139893 0.000000 -0.147501 0.000000 0.989062 1.000000 1.000000 1.000000
2130.996582 0.000000 3018.062500 0.000000 0.979083 0.000000 0.203460 1.000000 1.000000 1.000000
2137.782715 0.000000 3021.742188 0.000000 -0.302294 0.000000 0.953215 1.000000 1.000000 1.000000
2144.174072 0.000000 3025.407715 0.000000 -0.209496 0.000000 0.977809 1.000000 1.000000 1.000000
2150.553223 0.000000 3028.766846 0.000000 -0.267868 0.000000 0.963456 1.000000 1.000000 1.000000
2176.646484 0.000000 3050.214355 0.000000 -0.114949 0.000000 0.993371 1.000000 1.000000 1.000000
2184.114502 0.000000 3050.227295 0.000000 0.000000 0.000000 1.000000 1.000000 1.000000 1.000000
2191.667969 0.000000 3049.836426 0.000000 0.000000 0.000000 1.000000 1.000000 1.000000 1.000000
2199.434814 0.000000 3049.633789 0.000000 0.000000 0.000000 1.000000 1.000000 1.000000 1.000000
2207.086426 0.000000 3055.820801 0.000000 0.822186 0.000000 0.569219 1.000000 1.000000 1.000000
2209.459473 0.000000 3062.885010 0.000000 -0.656490 0.000000 0.754335 1.000000 1.000000 1.000000
2211.310547 0.000000 3070.032715 0.000000 -0.565176 0.000000 0.824970 1.000000 1.000000 1.000000
2215.876709 0.000000 3074.773926 0.000000 -0.258653 0.000000 0.965970 1.000000 1.000000 1.000000
2221.984131 0.000000 3079.368408 0.000000 -0.390340 0.000000 0.920671 1.000000 1.000000 1.000000
2492.551758 0.000000 2855.289307 0.000000 -0.206003 0.000000 0.978551 1.000000 1.000000 1.000000
2485.933105 0.000000 2863.738037 0.000000 0.577623 0.000000 0.816303 1.000000 1.000000 1.000000
2154.377441 0.000000 3038.643555 0.000000 0.657870 0.000000 0.753132 1.000000 1.000000 1.000000
2160.899902 0.000000 3047.904053 0.000000 -0.154017 0.000000 0.988068 1.000000 1.000000 1.000000
2168.288574 0.000000 3049.061768 0.000000 -0.009033 0.000000 0.999959 1.000000 1.000000 1.000000
2226.717285 0.000000 3085.160645 0.000000 -0.462980 0.000000 0.886369 1.000000 1.000000 1.000000
"}
object={
	name="hadrians wall 03"
	clamp_to_water_level=no
	render_under_water=yes
	generated_content=no
	layer="temp_layer"
	pdxmesh="hadrians_wall_01_c_mesh"
	count=13
	transform="1205.477051 0.000000 2455.697754 0.000000 -0.978443 0.000000 -0.206515 1.000000 1.000000 1.000000
1215.225708 0.000000 2456.411133 0.000000 -0.948432 0.000000 -0.316981 1.000000 1.000000 1.000000
1178.088745 0.000000 2456.943359 0.000000 -0.330231 0.000000 0.943900 1.000000 1.000000 1.000000
1182.593750 0.000000 2466.083984 0.000000 -0.099414 0.000000 0.995046 1.000000 1.000000 1.000000
1201.546997 0.000000 2467.410400 0.000000 0.276413 0.000000 0.961039 1.000000 1.000000 1.000000
1196.997070 0.000000 2462.093506 0.000000 -0.953522 0.000000 -0.301324 1.000000 1.000000 1.000000
1189.384033 0.000000 2448.374756 0.000000 -0.826384 0.000000 0.563106 1.000000 1.000000 1.000000
1196.027954 0.000000 2450.008057 0.000000 -0.808597 0.000000 -0.588363 1.000000 1.000000 1.000000
2524.571533 0.000000 2744.712891 0.000000 0.977989 0.000000 0.208656 1.000000 1.000000 1.000000
2154.156494 0.000000 3032.873047 0.000000 0.904818 0.000000 0.425800 1.000000 1.000000 1.000000
2155.580566 0.000000 3045.324219 0.000000 -0.200117 0.000000 0.979772 1.000000 1.000000 1.000000
2204.564697 0.000000 3050.907227 0.000000 0.995857 0.000000 0.090934 1.000000 1.000000 1.000000
2049.092773 0.000000 2884.418457 0.000000 -0.583041 0.000000 0.812443 1.000000 1.000000 1.000000
"}
object={
	name="hadrians wall 04"
	clamp_to_water_level=no
	render_under_water=yes
	generated_content=no
	layer="temp_layer"
	pdxmesh="hadrians_wall_01_d_mesh"
	count=7
	transform="1215.502075 0.000000 2461.436035 0.000000 0.000000 0.000000 1.000000 1.000000 1.000000 1.000000
1184.886353 0.000000 2453.016357 0.000000 -0.527948 0.000000 0.849277 1.000000 1.000000 1.000000
1189.947144 0.000000 2447.404541 0.000000 0.000000 0.000000 1.000000 1.000000 1.000000 1.000000
1202.626709 0.000000 2458.416260 0.000000 -0.372030 0.000000 0.928221 1.000000 1.000000 1.000000
1200.200684 0.000000 2456.309814 0.000000 0.000000 0.000000 1.000000 1.000000 1.000000 1.000000
1202.620117 0.000000 2455.455566 0.000000 -0.260303 0.000000 0.965527 1.000000 1.000000 1.000000
1198.014038 0.000000 2462.031982 0.000000 0.000000 0.000000 1.000000 1.000000 1.000000 1.000000
"}
object={
	name="mines"
	clamp_to_water_level=no
	render_under_water=yes
	generated_content=no
	layer="temp_layer"
	pdxmesh="building_special_mines_mesh"
	count=0
}
object={
	name="special_brihadeeswarar_temple"
	clamp_to_water_level=no
	render_under_water=yes
	generated_content=no
	layer="temp_layer"
	pdxmesh="building_special_brihadeeswarar_temple_mesh"
	count=0
}
object={
	name="special_building_petra"
	clamp_to_water_level=no
	render_under_water=yes
	generated_content=no
	layer="temp_layer"
	pdxmesh="building_special_petra_mesh"
	count=0
}
object={
	name="special_cathedral_generic"
	clamp_to_water_level=no
	render_under_water=yes
	generated_content=no
	layer="temp_layer"
	pdxmesh="building_special_cathedral_generic_mesh"
	count=0
}
object={
	name="special_cathedral_pagan"
	clamp_to_water_level=no
	render_under_water=yes
	generated_content=no
	layer="temp_layer"
	pdxmesh="building_special_cathedral_pagan_mesh"
	count=0
}
object={
	name="special_colosseum"
	clamp_to_water_level=no
	render_under_water=yes
	generated_content=no
	layer="temp_layer"
	pdxmesh="building_special_colosseum_mesh"
	count=0
}
object={
	name="special_great_mosque_of_djenne"
	clamp_to_water_level=no
	render_under_water=yes
	generated_content=no
	layer="temp_layer"
	pdxmesh="building_special_great_mosque_of_djenne_mesh"
	count=0
}
object={
	name="special_great_mosque_of_mecca"
	clamp_to_water_level=no
	render_under_water=yes
	generated_content=no
	layer="temp_layer"
	pdxmesh="building_special_great_mosque_of_mecca_mesh"
	count=0
}
object={
	name="special_notre_dame"
	clamp_to_water_level=no
	render_under_water=yes
	generated_content=no
	layer="temp_layer"
	pdxmesh="building_special_notre_dame_mesh"
	count=0
}
object={
	name="special_palace_of_aachen"
	clamp_to_water_level=no
	render_under_water=yes
	generated_content=no
	layer="temp_layer"
	pdxmesh="building_special_palace_of_aachen_mesh"
	count=0
}
object={
	name="special_pyramids_giza"
	clamp_to_water_level=no
	render_under_water=yes
	generated_content=no
	layer="temp_layer"
	pdxmesh="building_special_pyramids_giza_mesh"
	count=0
}
object={
	name="special_stonehenge"
	clamp_to_water_level=no
	render_under_water=yes
	generated_content=no
	layer="temp_layer"
	pdxmesh="building_indian_castle_02_mesh"
	count=0
}
object={
	name="special_tower_of_london"
	clamp_to_water_level=no
	render_under_water=yes
	generated_content=no
	layer="temp_layer"
	pdxmesh="building_special_tower_of_london_mesh"
	count=3
	transform="927.932922 0.000000 2671.254150 0.000000 0.000000 0.000000 1.000000 1.000000 1.000000 1.000000
2062.586914 0.000000 2961.487061 0.000000 0.582173 0.000000 0.813065 0.473778 0.473778 0.473778
2232.631592 0.000000 2831.919189 0.000000 0.000000 0.000000 1.000000 0.547798 0.547798 0.547798
"}
